{
  "id": "5931780a-21c4-49e5-9aed-bb859ac391f8",
  "name": "Pep WSO2 QA",
  "values": [
    {
      "key": "apiUrl",
      "value": "api-gw-qa.pepstores.com",
      "enabled": true
    },
    {
      "key": "apiHttpPort",
      "value": "80",
      "enabled": true
    },
    {
      "key": "apiHttpsPort",
      "value": "443",
      "enabled": true
    },
    {
      "key": "client_id",
      "value": "hEEsBWrduSFC71xzDV5rUXOAoDka",
      "enabled": true
    },
    {
      "key": "client_secret",
      "value": "1Fmoi6_En_3xeO00M5Oz7tldAMoa",
      "enabled": true
    },
    {
      "key": "access_token",
      "value": "69926ae9-2536-3598-8c64-9f106fab721c",
      "enabled": true
    },
    {
      "key": "client_creds_base64",
      "value": "aEVFc0JXcmR1U0ZDNzF4ekRWNXJVWE9Bb0RrYToxRm1vaTZfRW5fM3hlTzAwTTVPejd0bGRBTW9h",
      "enabled": true
    },
    {
      "key": "base64ClientIdSecret",
      "value": "dW5kZWZpbmVkOnVuZGVmaW5lZA==",
      "enabled": true
    }
  ],
  "_postman_variable_scope": "environment",
  "_postman_exported_at": "2018-09-14T09:31:16.743Z",
  "_postman_exported_using": "Postman/6.3.0"
}